{
  "project_info": {
    "project_number": "519769183317",
    "firebase_url": "https://chatapp-bff98.firebaseio.com",
    "project_id": "chatapp-bff98",
    "storage_bucket": "chatapp-bff98.appspot.com"
  },
  "client": [
    {
      "client_info": {
        "mobilesdk_app_id": "1:519769183317:android:bdf078d0fb2a3042",
        "android_client_info": {
          "package_name": "ad.tranxuan.vinh.chatapp"
        }
      },
      "oauth_client": [
        {
          "client_id": "519769183317-7dtp0vohc0451mqam71d9ukpah6p4v5i.apps.googleusercontent.com",
          "client_type": 1,
          "android_info": {
            "package_name": "ad.tranxuan.vinh.chatapp",
            "certificate_hash": "683cd527b2c9e7d30333eb1719ccafad010f78af"
          }
        },
        {
          "client_id": "519769183317-44d2ul8l8b1a34non6g444jkhl9goonj.apps.googleusercontent.com",
          "client_type": 3
        }
      ],
      "api_key": [
        {
          "current_key": "AIzaSyBwq4L0Ubc9qLbkFsBAUKardjR7vNCyKwg"
        }
      ],
      "services": {
        "appinvite_service": {
          "other_platform_oauth_client": [
            {
              "client_id": "519769183317-44d2ul8l8b1a34non6g444jkhl9goonj.apps.googleusercontent.com",
              "client_type": 3
            }
          ]
        }
      }
    }
  ],
  "configuration_version": "1"
}